<?xml version="1.0" encoding="UTF-8" standalone="no"?><OAI-PMH xmlns="http://www.openarchives.org/OAI/2.0/" xmlns:xsi="http://www.w3.org/2001/XMLSchema-instance" xsi:schemaLocation="http://www.openarchives.org/OAI/2.0/ http://www.openarchives.org/OAI/2.0/OAI-PMH.xsd"><responseDate>2013-08-27T12:08:25Z      </responseDate><request from="2009-01-01" metadataPrefix="oai_dc" set="nimk" verb="ListRecords">http://openbeelden.nl/feeds/oai/?verb=ListRecords&amp;amp;metadataPrefix=oai_dc&amp;amp;from=2009-01-01&amp;amp;set=nimk</request><ListRecords><record><header><identifier>oai:openimages.eu:92553</identifier><datestamp>2011-12-22T12:25:06Z</datestamp><setSpec>nimk</setSpec></header><metadata><oai_dc:dc xmlns:dc="http://purl.org/dc/elements/1.1/" xmlns:oai_dc="http://www.openarchives.org/OAI/2.0/oai_dc/" xsi:schemaLocation="http://www.openarchives.org/OAI/2.0/oai_dc/ http://www.openarchives.org/OAI/2.0/oai_dc.xsd"><dc:title xml:lang="en">Interview with Nan Hoover by Willem van Weelden</dc:title><dc:creator xml:lang="en">Netherlands Media Art Institute </dc:creator><dc:description xml:lang="en">Willem van Weelden interviews Dutch video art pioneer Nan Hoover.In December 1997, the Netherlands Media Art Institute officially opened its new building on Keizersgracht 264, Amsterdam. On the occasion of this 'Grand Opening', Dutch researcher, artist and teacher Willem van Weelden has interviewed several media artists about their work. Nan Hoover (1931-2008) was one of the Netherlands' most prominent and pioneering video artists. This interview covers a range of topics, such as her development as an artist, moving from painting to time-based media, the use of the body in her work, and her sources of inspiration and creativity. Nan Hoover elaborates the starting points of her work and how she experienced the collaboration with dancers and choreographers, as well as working with students from art academies.</dc:description><dc:publisher xml:lang="en">Netherlands Media Art Institute  </dc:publisher><dc:publisher>http://www.openbeelden.nl/users/sandranimk</dc:publisher><dc:date>1997-12-12</dc:date><dc:type>Moving Image</dc:type><dc:format>http://openbeelden.nl/files/92/105947.NanHoover.webm</dc:format><dc:format>http://openbeelden.nl/files/92/105939.NanHoover.ogv</dc:format><dc:format>http://openbeelden.nl/files/92/105941.NanHoover.ogv</dc:format><dc:format>http://openbeelden.nl/files/92/105943.NanHoover.mp4</dc:format><dc:format>http://openbeelden.nl/files/92/105945.NanHoover.mp4</dc:format><dc:format>http://openbeelden.nl/files/92/106102.NanHoover.m3u8</dc:format><dc:format>http://openbeelden.nl/files/92/105949.NanHoover.ts</dc:format><dc:format>http://openbeelden.nl/files/92/105911.NanHoover.mpeg</dc:format><dc:format>http://openbeelden.nl/files/NIMk/NanHoover.mpg</dc:format><dc:format>http://openbeelden.nl/images/603220/Interview_with_Nan_Hoover_by_Willem_van_Weelden_%2811_23%29.png</dc:format><dc:identifier/><dc:source xml:lang="en"/><dc:relation xml:lang="en"/><dc:language>en</dc:language><dc:rights>http://creativecommons.org/licenses/by-sa/3.0/nl/</dc:rights></oai_dc:dc></metadata></record><record><header><identifier>oai:openimages.eu:92614</identifier><datestamp>2011-12-12T12:27:56Z</datestamp><setSpec>nimk</setSpec></header><metadata><oai_dc:dc xmlns:dc="http://purl.org/dc/elements/1.1/" xmlns:oai_dc="http://www.openarchives.org/OAI/2.0/oai_dc/" xsi:schemaLocation="http://www.openarchives.org/OAI/2.0/oai_dc/ http://www.openarchives.org/OAI/2.0/oai_dc.xsd"><dc:title xml:lang="en">Blender Foundation: Elephants Dream</dc:title><dc:creator xml:lang="en">Blender Foundation / Netherlands Media Art Institute</dc:creator><dc:description xml:lang="en">Elephants Dream is a story about communication and fiction, and the worldâ€™s first 3D animated â€œOpen movieâ€�.Elephants Dream is the story of two strange characters exploring a capricious and seemingly infinite machine. The elder, Proog, acts as a tour-guide and protector, happily showing off the sights and dangers of the machine to his initially curious but increasingly skeptical protege Emo. As their journey unfolds we discover signs that the machine is not all Proog thinks it is, and his guiding takes on a more desperate aspect.  Elephants Dream is a story about communication and fiction, made purposefully open-ended as the worldâ€™s first 3D animated â€œOpen movieâ€�. The film itself is released under a Creative Commons license, along with the entirety of the production files used to make it (roughly 7 Gigabytes of data). The software used to make the movie is the free/open source animation suite Blender along with other open source software, thus allowing the movie to be remade, remixed and re-purposed with only a computer and the data on the DVD or download.  Elephants Dream is the result of almost a year of work, a project initiated and coordinated by the Blender Foundation. Six people from the Blender user/development community were selected to come over to Amsterdam to work together on an animated short movie, utilizing Open Source tools only. Elephants Dream was developed in the context of an artist in residence project at the Netherlands Media Art Institute.</dc:description><dc:publisher xml:lang="en">Netherlands Media Art Institute  </dc:publisher><dc:publisher>http://www.openbeelden.nl/users/sandranimk</dc:publisher><dc:date>2006-03-25</dc:date><dc:type>Moving Image</dc:type><dc:format>http://openbeelden.nl/files/92/104105.ed_hd.webm</dc:format><dc:format>http://openbeelden.nl/files/92/104097.ed_hd.ogv</dc:format><dc:format>http://openbeelden.nl/files/92/104099.ed_hd.ogv</dc:format><dc:format>http://openbeelden.nl/files/92/104101.ed_hd.mp4</dc:format><dc:format>http://openbeelden.nl/files/92/104103.ed_hd.mp4</dc:format><dc:format>http://openbeelden.nl/files/92/104175.ed_hd.m3u8</dc:format><dc:format>http://openbeelden.nl/files/92/104107.ed_hd.ts</dc:format><dc:format>http://openbeelden.nl/files/92/104089.ed_hd.mpeg</dc:format><dc:format>http://openbeelden.nl/images/603225/Blender_Foundation_Elephants_Dream_%285_26%29.png</dc:format><dc:identifier/><dc:source xml:lang="en"/><dc:relation xml:lang="en"/><dc:language>en</dc:language><dc:rights>http://creativecommons.org/licenses/by/3.0/nl/</dc:rights></oai_dc:dc></metadata></record><record><header><identifier>oai:openimages.eu:102293</identifier><datestamp>2011-12-01T14:00:53Z</datestamp><setSpec>nimk</setSpec></header><metadata><oai_dc:dc xmlns:dc="http://purl.org/dc/elements/1.1/" xmlns:oai_dc="http://www.openarchives.org/OAI/2.0/oai_dc/" xsi:schemaLocation="http://www.openarchives.org/OAI/2.0/oai_dc/ http://www.openarchives.org/OAI/2.0/oai_dc.xsd"><dc:title xml:lang="en">Edwin van der Heide: Sound Modulated Light (2005)</dc:title><dc:creator xml:lang="en">Netherlands Media Art Institute, Edwin van der Heide</dc:creator><dc:description xml:lang="en">An interactive sound and light installation by Dutch media artist Edwin van der Heide.In a room, a row of dim quartz lamp lights is positioned on the wall, approximately one meter high. The visitor receives a box with a sensor and a pair of headphones attached to it. Using this apparatus, the visitor can approach the lamps; light rays are translated into sound frequencies and the intensity of the sound is dependent on how close or far away the sensor is from the lamps. Each lamp is connected to a different sound, and moving between lights creates a combination of the two different frequencies. The audio is reminiscent of science fiction sound effects from the 1950s and 60s. As the lamps only produce around 50Hz, the room is illuminated with a soft and comforting glow.  http://catalogue.nimk.nl/site/art.php?id=11355</dc:description><dc:publisher xml:lang="en">Netherlands Media Art Institute  </dc:publisher><dc:publisher>http://www.openbeelden.nl/users/sandranimk</dc:publisher><dc:date>2006-07-07</dc:date><dc:type>Moving Image</dc:type><dc:format>http://openbeelden.nl/files/01/02/102314.102292.13117.webm</dc:format><dc:format>http://openbeelden.nl/files/01/02/102306.102292.13117.ogv</dc:format><dc:format>http://openbeelden.nl/files/01/02/102308.102292.13117.ogv</dc:format><dc:format>http://openbeelden.nl/files/01/02/102310.102292.13117.mp4</dc:format><dc:format>http://openbeelden.nl/files/01/02/102312.102292.13117.mp4</dc:format><dc:format>http://openbeelden.nl/files/01/02/102330.102292.13117.m3u8</dc:format><dc:format>http://openbeelden.nl/files/01/02/102316.102292.13117.ts</dc:format><dc:format>http://openbeelden.nl/files/01/02/102295.102292.13117.mpeg</dc:format><dc:format>http://openbeelden.nl/files/01/02/102292.13117.mpg</dc:format><dc:format>http://openbeelden.nl/images/603244/Edwin_van_der_Heide_Sound_Modulated_Light_%282005%29_%280_44%29.png</dc:format><dc:identifier/><dc:source xml:lang="en"/><dc:relation xml:lang="en"/><dc:language>en</dc:language><dc:rights>http://creativecommons.org/licenses/by-sa/3.0/nl/</dc:rights></oai_dc:dc></metadata></record><record><header><identifier>oai:openimages.eu:96213</identifier><datestamp>2011-10-20T17:06:25Z</datestamp><setSpec>nimk</setSpec></header><metadata><oai_dc:dc xmlns:dc="http://purl.org/dc/elements/1.1/" xmlns:oai_dc="http://www.openarchives.org/OAI/2.0/oai_dc/" xsi:schemaLocation="http://www.openarchives.org/OAI/2.0/oai_dc/ http://www.openarchives.org/OAI/2.0/oai_dc.xsd"><dc:title xml:lang="en">Peter Bogers: The Unified Field</dc:title><dc:creator xml:lang="en">Peter Bogers / Netherlands Media Art Institute</dc:creator><dc:description xml:lang="en">A multi-channel video and audio installation by Peter Bogers.In 'The Unified Field', the viewer - who, as is more often the case with Bogers' work, first and foremost has to be the listener to fathom the different layers of his installations - is being spoken to by an abstracted face behind a grid. With a compelling, almost mesmerizing voice, the man tries to teach us something about our minds. He bombards us with scientific and pseudo-scientific terms. He says that the mind and the intellect are not the same, and are not even complementary; that the brain cannot experience itself and cannot concur with the mind that perceives. There is polyphony in our heads, and the parallel spheres in the brain are unable to come together. But, he goes on, each individual brain can have access to the universal brain if only we use the advanced techniques he mentions. If large groups of people simultaneously synchronized their positive thoughts by means of meditation, this could affect everyday reality and eventually become the solution to the crises and problems facing society. If we did our best, we would be 'spontaneously aligned with the unified field' and our 'thoughts and actions [would be] naturally aligned with natural law.' This illusion of the scientific which Bogers presents us with, is confronted by a large number of small loudspeakers which fill the room. They hang from the ceiling, spread around the room equidistant from each other. When you wend your way meandering among them and come closer by, you can hear a different voice singing in each of them. The songs they are singing are intimate and seem to be deeply rooted in their local cultural background. All these voices are interconnected by the intervals for breathing, which take place at exactly the same time. The grid that is visible on the video images moves in time to this rhythm of the breathing in and breathing out. In this way a 'field' is created, all the components of which are interrelated. When you stand still and shift your attention from the man and his message to the unified sounds, the separate voices together form an atonal chorus. What the man is so emphatically trying to tell us is interrupted, contradicted and in a way also confirmed by the singing Babylonian confusion.</dc:description><dc:publisher xml:lang="en">Netherlands Media Art Institute  </dc:publisher><dc:publisher>http://www.openbeelden.nl/users/sandranimk</dc:publisher><dc:date>2006-08-26</dc:date><dc:type>Moving Image</dc:type><dc:format>http://openbeelden.nl/files/96/96238.96210.11476.webm</dc:format><dc:format>http://openbeelden.nl/files/96/96230.96210.11476.ogv</dc:format><dc:format>http://openbeelden.nl/files/96/96232.96210.11476.ogv</dc:format><dc:format>http://openbeelden.nl/files/96/96234.96210.11476.mp4</dc:format><dc:format>http://openbeelden.nl/files/96/96236.96210.11476.mp4</dc:format><dc:format>http://openbeelden.nl/files/96/96262.96210.11476.m3u8</dc:format><dc:format>http://openbeelden.nl/files/96/96240.96210.11476.ts</dc:format><dc:format>http://openbeelden.nl/files/96/96215.96210.11476.mpeg</dc:format><dc:format>http://openbeelden.nl/images/599868/preview_video_512x288.png</dc:format><dc:identifier/><dc:source xml:lang="en"/><dc:relation xml:lang="en"/><dc:language/><dc:rights>http://creativecommons.org/licenses/by-sa/3.0/nl/</dc:rights></oai_dc:dc></metadata></record><record><header><identifier>oai:openimages.eu:92570</identifier><datestamp>2011-10-20T17:06:02Z</datestamp><setSpec>nimk</setSpec></header><metadata><oai_dc:dc xmlns:dc="http://purl.org/dc/elements/1.1/" xmlns:oai_dc="http://www.openarchives.org/OAI/2.0/oai_dc/" xsi:schemaLocation="http://www.openarchives.org/OAI/2.0/oai_dc/ http://www.openarchives.org/OAI/2.0/oai_dc.xsd"><dc:title xml:lang="en">Daan Roosegaarde: Dune 4.0</dc:title><dc:creator xml:lang="en">Daan Roosegaarde / Netherlands Media Art Institute </dc:creator><dc:description xml:lang="en">DUNE by Studio Roosegaarde is a public interactive landscape that interacts with human behavior.DUNE by Studio Roosegaarde is a public interactive landscape that interacts with human behavior. This hybrid of nature and technology is composed of large amounts of fibers that brighten according to the sounds and motion of passing visitors. This video shows an early prototype (Dune 4.0), developed as an artist in residence project at the Netherlands Media Art Institute in 2006. Commissioned by Netherlands Media Art Institute (Montevideo) Amsterdam, Rotterdam 2007 City of Architecture and CBK Rotterdam. Artist and architect Daan Roosegaarde (1979) explores the dawn of a new nature that is evolving from technological innovations by creating interactive landscapes that instinctively respond to sound and movement. Roosegaardeâ€™s works function as a documentation of the dynamic relation between architecture, people, and technology.  His sculptures, such as Dune and Intimacy, are tactile high-tech environments in which viewer and space become one. This connection, established between ideology and technology, results in what Roosegaarde calls â€œtechno-poetryâ€�.  In 2009, Roosegaarde won the Dutch Design Award. He has been the focus of exhibitions at the Tate Modern, the National Museum in Tokyo, the Victoria and Albert Museum in London, and various public spaces in Rotterdam and Hong Kong.</dc:description><dc:publisher xml:lang="en">Netherlands Media Art Institute  </dc:publisher><dc:publisher>http://www.openbeelden.nl/users/sandranimk</dc:publisher><dc:date>2006-12-15</dc:date><dc:type>Moving Image</dc:type><dc:format>http://openbeelden.nl/files/92/92588.92569.12853.webm</dc:format><dc:format>http://openbeelden.nl/files/92/92580.92569.12853.ogv</dc:format><dc:format>http://openbeelden.nl/files/92/92582.92569.12853.ogv</dc:format><dc:format>http://openbeelden.nl/files/92/92584.92569.12853.mp4</dc:format><dc:format>http://openbeelden.nl/files/92/92586.92569.12853.mp4</dc:format><dc:format>http://openbeelden.nl/files/92/92607.92569.12853.m3u8</dc:format><dc:format>http://openbeelden.nl/files/92/92590.92569.12853.ts</dc:format><dc:format>http://openbeelden.nl/files/92/92574.92569.12853.mpeg</dc:format><dc:format>http://openbeelden.nl/images/599868/preview_video_512x288.png</dc:format><dc:identifier/><dc:source xml:lang="en"/><dc:relation xml:lang="en"/><dc:language/><dc:rights>http://creativecommons.org/licenses/by-sa/3.0/nl/</dc:rights></oai_dc:dc></metadata></record><record><header><identifier>oai:openimages.eu:93416</identifier><datestamp>2011-09-26T11:36:07Z</datestamp><setSpec>nimk</setSpec></header><metadata><oai_dc:dc xmlns:dc="http://purl.org/dc/elements/1.1/" xmlns:oai_dc="http://www.openarchives.org/OAI/2.0/oai_dc/" xsi:schemaLocation="http://www.openarchives.org/OAI/2.0/oai_dc/ http://www.openarchives.org/OAI/2.0/oai_dc.xsd"><dc:title xml:lang="en">Mark Bain: Disco for N/One</dc:title><dc:creator xml:lang="en">Netherlands Media Art Institute / Mark Bain</dc:creator><dc:description xml:lang="en">Probably the world's tiniest disco. A project by Mark Bain, an American-Dutch media artist who works at the intersection of acoustics and architecture.Someone once suggested that the ultimate nightclub would contain a progression of rooms that would increasingly determine who the most 'very important people' were. This succession of VIP lounges would gradually get more selective. At each threshold a decision is made, weeding out the inferior people until one person is left standing. That lone individual, at the top of the pyramid, has the coveted opportunity of entering the space for n/one, to be alone and relish in their greatness. As such Mark Bain describes 'Disco for N/one'. The work can be seen as a spatial compression, taking all the elements of a normal size night club - lighting, smoke, sound and cramming it into a 1x1 meter space. This activated desiring room cannot be entered: it is an intensified experience that cannot be felt. With a door that only opens part way, one can peek in to get a glimpse of what happens inside. Smoke piles out, lights are dancing, sound is pumping, and after locking the door closes automatically, shuttering, the outside world while inside the party continues. Being there and simultaneously not being there, are we dealing here with Pandora's box or is it a transition zone to some heavenly world? Or could it be an escape of hybristic proportions, a container for a narcissistic love affair with the idol of self?</dc:description><dc:publisher xml:lang="en">Netherlands Media Art Institute  </dc:publisher><dc:publisher>http://www.openbeelden.nl/users/sandranimk</dc:publisher><dc:date>2002-01-12</dc:date><dc:type>Moving Image</dc:type><dc:format>http://openbeelden.nl/files/93/93432.93415.12927.webm</dc:format><dc:format>http://openbeelden.nl/files/93/93424.93415.12927.ogv</dc:format><dc:format>http://openbeelden.nl/files/93/93426.93415.12927.ogv</dc:format><dc:format>http://openbeelden.nl/files/93/93428.93415.12927.mp4</dc:format><dc:format>http://openbeelden.nl/files/93/93430.93415.12927.mp4</dc:format><dc:format>http://openbeelden.nl/files/93/93441.93415.12927.m3u8</dc:format><dc:format>http://openbeelden.nl/files/93/93434.93415.12927.ts</dc:format><dc:format>http://openbeelden.nl/files/93/93418.93415.12927.mpeg</dc:format><dc:format>http://openbeelden.nl/files/93/93415.12927.mpg</dc:format><dc:format>http://openbeelden.nl/images/603312/Mark_Bain_Disco_for_N_One_%280_58%29.png</dc:format><dc:identifier/><dc:source xml:lang="en"/><dc:relation xml:lang="en"/><dc:language>en</dc:language><dc:rights>http://creativecommons.org/licenses/by-sa/3.0/nl/</dc:rights></oai_dc:dc></metadata></record><record><header><identifier>oai:openimages.eu:93108</identifier><datestamp>2011-09-21T19:52:58Z</datestamp><setSpec>nimk</setSpec></header><metadata><oai_dc:dc xmlns:dc="http://purl.org/dc/elements/1.1/" xmlns:oai_dc="http://www.openarchives.org/OAI/2.0/oai_dc/" xsi:schemaLocation="http://www.openarchives.org/OAI/2.0/oai_dc/ http://www.openarchives.org/OAI/2.0/oai_dc.xsd"><dc:title xml:lang="en">Bill Spinhoven: I/Eye</dc:title><dc:creator xml:lang="en">Bill Spinhoven / Netherlands Media Art Institute </dc:creator><dc:description xml:lang="en">A classical interactive installation about privacy and being watched.Although we are generally unaware of it, our daily comings and goings are constantly being monitored by cameras and other surveillance-equipment: whether we're in a bank, at an airport, in a museum or a supermarket, our presence is being registered and checked-out practically round-the-clock, as if we were all potential criminals. Big Brother is watching you, or rather peeping surreptitiously at you. The interactive  I/Eye (1993) however, gazes at you quite openly with the naked eye.  I/Eye is a giant eye that fills the entire screen of a video monitor. Not only does it look directly at you, it follows you and actually moves with you. Initially, you think that you are the observer, but then you realise that you yourself are also being observed. (Spinhoven filmed his own eye in numerous different positions, which, via a computer programme, responds instantly to 'real life' recordings of the observer.) Finding yourself eye to eye with  I/Eye you experience, tangibly as well as mentally, what it's like to be regarded, scrutinised and tracked almost as an object - some nameless thing. At the same time your own secure position as observer feels somehow undermined, an unnerving experience....</dc:description><dc:publisher xml:lang="en">Netherlands Media Art Institute  </dc:publisher><dc:publisher>http://www.openbeelden.nl/users/sandranimk</dc:publisher><dc:date>1993-09-20</dc:date><dc:type>Moving Image</dc:type><dc:format>http://openbeelden.nl/files/93/93127.93107.Spinhoven__Bill.2097-doc.I_Eye_registratie_Galerie_Rene_Coelho_1994_.2834-9649.webm</dc:format><dc:format>http://openbeelden.nl/files/93/93119.93107.Spinhoven__Bill.2097-doc.I_Eye_registratie_Galerie_Rene_Coelho_1994_.2834-9649.ogv</dc:format><dc:format>http://openbeelden.nl/files/93/93121.93107.Spinhoven__Bill.2097-doc.I_Eye_registratie_Galerie_Rene_Coelho_1994_.2834-9649.ogv</dc:format><dc:format>http://openbeelden.nl/files/93/93123.93107.Spinhoven__Bill.2097-doc.I_Eye_registratie_Galerie_Rene_Coelho_1994_.2834-9649.mp4</dc:format><dc:format>http://openbeelden.nl/files/93/93125.93107.Spinhoven__Bill.2097-doc.I_Eye_registratie_Galerie_Rene_Coelho_1994_.2834-9649.mp4</dc:format><dc:format>http://openbeelden.nl/files/93/93133.93107.Spinhoven__Bill_2097_doc_I_Eye_registratie_Galerie_Rene_Coelho_1994__2834_9649.m3u8</dc:format><dc:format>http://openbeelden.nl/files/93/93129.93107.Spinhoven__Bill.2097-doc.I_Eye_registratie_Galerie_Rene_Coelho_1994_.2834-9649.ts</dc:format><dc:format>http://openbeelden.nl/files/93/93110.93107.Spinhoven__Bill.2097-doc.I_Eye_registratie_Galerie_Rene_Coelho_1994_.2834-9649.mpeg</dc:format><dc:format>http://openbeelden.nl/files/93/93107.Spinhoven__Bill.2097-doc.I_Eye_registratie_Galerie_Rene_Coelho_1994_.2834-9649.mpg</dc:format><dc:format>http://openbeelden.nl/images/603313/Bill_Spinhoven_I_Eye_%280_31%29.png</dc:format><dc:identifier/><dc:source xml:lang="en"/><dc:relation xml:lang="en"/><dc:language>en</dc:language><dc:rights>http://creativecommons.org/licenses/by-sa/3.0/nl/</dc:rights></oai_dc:dc></metadata></record><resumptionToken completeListSize="7" cursor="0"/></ListRecords></OAI-PMH>