<?xml version="1.0" encoding="UTF-8" standalone="no"?><OAI-PMH xmlns="http://www.openarchives.org/OAI/2.0/" xmlns:xsi="http://www.w3.org/2001/XMLSchema-instance" xsi:schemaLocation="http://www.openarchives.org/OAI/2.0/ http://www.openarchives.org/OAI/2.0/OAI-PMH.xsd"><responseDate>2013-08-27T12:10:36Z      </responseDate><request metadataPrefix="oai_dc" resumptionToken="!f2009-01-01!u!s-rotterdam!oai_dc!100" set="rotterdam" verb="ListRecords">http://openbeelden.nl/feeds/oai/?verb=ListRecords&amp;amp;resumptionToken=!f2009-01-01!u!s-rotterdam!oai_dc!100</request><ListRecords><record><header><identifier>oai:openimages.eu:54279</identifier><datestamp>2011-01-19T16:18:31Z</datestamp><setSpec>beeldengeluid</setSpec><setSpec>rotterdam</setSpec></header><metadata><oai_dc:dc xmlns:dc="http://purl.org/dc/elements/1.1/" xmlns:oai_dc="http://www.openarchives.org/OAI/2.0/oai_dc/" xsi:schemaLocation="http://www.openarchives.org/OAI/2.0/oai_dc/ http://www.openarchives.org/OAI/2.0/oai_dc.xsd"><dc:title xml:lang="nl">Nieuwe veerdienst</dc:title><dc:title xml:lang="en">New ferry service</dc:title><dc:creator xml:lang="nl">Polygoon-Profilti (producent) / Nederlands Instituut voor Beeld en Geluid (beheerder)</dc:creator><dc:creator xml:lang="en">Polygoon-Profilti (producer) / Netherlands Institute for Sound and Vision (curator)</dc:creator><dc:subject xml:lang="nl">havens</dc:subject><dc:subject xml:lang="nl">openingen</dc:subject><dc:subject xml:lang="nl">Suurhoff, J.G.</dc:subject><dc:subject xml:lang="nl">North Sea Ferries</dc:subject><dc:subject xml:lang="nl">Norwave</dc:subject><dc:subject xml:lang="en">harbours</dc:subject><dc:subject xml:lang="en">openings</dc:subject><dc:subject xml:lang="en">Suurhoff, J.G.</dc:subject><dc:subject xml:lang="en">North Sea Ferries</dc:subject><dc:subject xml:lang="en">Norwave</dc:subject><dc:description xml:lang="nl">Bioscoopjournaals waarin Nederlandse onderwerpen van een bepaalde week worden gepresenteerd.Minister J.G. Suurhoff van Verkeer en Waterstaat luidt in een loods te Europoort een bel, waarna de deuren van de loods opengaan en men uitkijkt over een nieuwe haven. Eerder die dag is bij de haven de veerboot Norwave van de North Sea Ferries als eerste schip aangekomen. Met de veerboot wordt de veerdienst tussen Rotterdam en Hull onderhouden. Auto's en vrachtwagens kunnen het schip aan de achterzijde oprijden en aan de voorzijde weer verlaten. Met het int. van het schip, oa de bar, passagiersruimtes en de hutten.</dc:description><dc:description xml:lang="en">Newsreels in which Dutch subjects of a certain week are presented.Minister J.G. Suurhoff of Transport, Public Works and Water management rings a bell in a pilot in Europoort, after which the doors of the pilot open and one can look out over a new harbour. Earlier that day the ferry Norwave of the North Sea Ferries was the first ship to arrive in the harbour. With the ferry a service between Rotterdam and Hull is maintained. Cars and lorries can drive onto the ship from the rear side and leave it at the front side. With the int. of the ship, a.o. the bar, space for the passengers and huts</dc:description><dc:publisher xml:lang="nl">Nederlands Instituut voor Beeld en Geluid</dc:publisher><dc:publisher>http://www.openbeelden.nl/users/beeldengeluid</dc:publisher><dc:date>1965-12-18</dc:date><dc:type>Moving Image</dc:type><dc:format>http://openbeelden.nl/files/54/54286.54278.WEEKNUMMER655-HRE00015EE6.ogv</dc:format><dc:format>http://openbeelden.nl/files/54/54289.54278.WEEKNUMMER655-HRE00015EE6.ogv</dc:format><dc:format>http://openbeelden.nl/files/54/54292.54278.WEEKNUMMER655-HRE00015EE6.mp4</dc:format><dc:format>http://openbeelden.nl/files/54/54298.54278.WEEKNUMMER655_HRE00015EE6.m3u8</dc:format><dc:format>http://openbeelden.nl/files/54/54295.54278.WEEKNUMMER655-HRE00015EE6.ts</dc:format><dc:format>http://openbeelden.nl/files/54/54282.54278.WEEKNUMMER655-HRE00015EE6.mpeg</dc:format><dc:format>http://openbeelden.nl/files/54/54278.WEEKNUMMER655-HRE00015EE6.mpg</dc:format><dc:format>http://openbeelden.nl/images/604294/Nieuwe_veerdienst_%280_50%29.png</dc:format><dc:identifier>519742</dc:identifier><dc:source xml:lang="nl">WEEKNUMMER655-HRE00015EE6</dc:source><dc:source xml:lang="en">WEEKNUMMER655-HRE00015EE6</dc:source><dc:relation xml:lang="nl"/><dc:language>nl</dc:language><dc:coverage xml:lang="nl">Europoort</dc:coverage><dc:coverage xml:lang="nl">Nederland</dc:coverage><dc:rights>http://creativecommons.org/licenses/by-sa/3.0/nl/</dc:rights></oai_dc:dc></metadata></record><record><header><identifier>oai:openimages.eu:54113</identifier><datestamp>2011-01-19T13:54:53Z</datestamp><setSpec>beeldengeluid</setSpec><setSpec>rotterdam</setSpec></header><metadata><oai_dc:dc xmlns:dc="http://purl.org/dc/elements/1.1/" xmlns:oai_dc="http://www.openarchives.org/OAI/2.0/oai_dc/" xsi:schemaLocation="http://www.openarchives.org/OAI/2.0/oai_dc/ http://www.openarchives.org/OAI/2.0/oai_dc.xsd"><dc:title xml:lang="nl">Groot verkeerscircuit</dc:title><dc:title xml:lang="en">Large interchange</dc:title><dc:creator xml:lang="nl">Polygoon-Profilti (producent) / Nederlands Instituut voor Beeld en Geluid (beheerder)</dc:creator><dc:creator xml:lang="en">Polygoon-Profilti (producer) / Netherlands Institute for Sound and Vision (curator)</dc:creator><dc:subject xml:lang="nl">snelwegen</dc:subject><dc:subject xml:lang="en">highways</dc:subject><dc:description xml:lang="nl">Bioscoopjournaals waarin Nederlandse onderwerpen van een bepaalde week worden gepresenteerd.Het nieuwe Kleinpolderplein aan de noordwestelijke stadsrand van Rotterdam, met o.a. viaducten en tunnels.</dc:description><dc:description xml:lang="en">Newsreels in which Dutch subjects of a certain week are presented.The new Kleinpolderplein on the north west city edge of Rotterdam, with a.o. viaducts and tunnels.</dc:description><dc:publisher xml:lang="nl">Nederlands Instituut voor Beeld en Geluid</dc:publisher><dc:publisher>http://www.openbeelden.nl/users/beeldengeluid</dc:publisher><dc:date>1971-07-01</dc:date><dc:type>Moving Image</dc:type><dc:format>http://openbeelden.nl/files/54/54120.54112.WEEKNUMMER713-HRE00015B01.ogv</dc:format><dc:format>http://openbeelden.nl/files/54/54123.54112.WEEKNUMMER713-HRE00015B01.ogv</dc:format><dc:format>http://openbeelden.nl/files/54/54126.54112.WEEKNUMMER713-HRE00015B01.mp4</dc:format><dc:format>http://openbeelden.nl/files/54/54143.54112.WEEKNUMMER713_HRE00015B01.m3u8</dc:format><dc:format>http://openbeelden.nl/files/54/54129.54112.WEEKNUMMER713-HRE00015B01.ts</dc:format><dc:format>http://openbeelden.nl/files/54/54116.54112.WEEKNUMMER713-HRE00015B01.mpeg</dc:format><dc:format>http://openbeelden.nl/files/54/54112.WEEKNUMMER713-HRE00015B01.mpg</dc:format><dc:format>http://openbeelden.nl/images/604299/Groot_verkeerscircuit_%280_32%29.png</dc:format><dc:identifier>518065</dc:identifier><dc:source xml:lang="nl">WEEKNUMMER713-HRE00015B01</dc:source><dc:source xml:lang="en">WEEKNUMMER713-HRE00015B01</dc:source><dc:relation xml:lang="nl"/><dc:language>nl</dc:language><dc:coverage xml:lang="nl">Kleinpolderplein</dc:coverage><dc:coverage xml:lang="nl">Nederland</dc:coverage><dc:coverage xml:lang="nl">Rotterdam</dc:coverage><dc:rights>http://creativecommons.org/licenses/by-sa/3.0/nl/</dc:rights></oai_dc:dc></metadata></record><record><header><identifier>oai:openimages.eu:47662</identifier><datestamp>2010-12-03T13:35:03Z</datestamp><setSpec>beeldengeluid</setSpec><setSpec>rotterdam</setSpec></header><metadata><oai_dc:dc xmlns:dc="http://purl.org/dc/elements/1.1/" xmlns:oai_dc="http://www.openarchives.org/OAI/2.0/oai_dc/" xsi:schemaLocation="http://www.openarchives.org/OAI/2.0/oai_dc/ http://www.openarchives.org/OAI/2.0/oai_dc.xsd"><dc:title xml:lang="nl">Jonge dieren in onze dierentuinen: Blijdorp</dc:title><dc:title xml:lang="en">Young animals in our zoos: Blijdorp</dc:title><dc:creator xml:lang="nl">Polygoon-Profilti (producent) / Nederlands Instituut voor Beeld en Geluid (beheerder)</dc:creator><dc:creator xml:lang="en">Polygoon-Profilti (producer) / Netherlands Institute for Sound and Vision (curator)</dc:creator><dc:subject xml:lang="nl">dierentuinen</dc:subject><dc:subject xml:lang="nl">jonge dieren</dc:subject><dc:subject xml:lang="nl">Diergaarde Blijdorp</dc:subject><dc:subject xml:lang="en">zoos</dc:subject><dc:subject xml:lang="en">young animals</dc:subject><dc:subject xml:lang="en">Diergaarde Blijdorp</dc:subject><dc:description xml:lang="nl">Bioscoopjournaals waarin Nederlandse onderwerpen van een bepaalde week worden gepresenteerd.Jonge dieren in Diergaarde Blijdorp te Rotterdam, met oa okapi's en zebra's.</dc:description><dc:description xml:lang="en">Newsreels in which Dutch subjects of a certain week are presented.Young animals in Diergaarde Blijdorp in Rotterdam, with a.o. okapis and zebras.</dc:description><dc:publisher xml:lang="nl">Nederlands Instituut voor Beeld en Geluid</dc:publisher><dc:publisher>http://www.openbeelden.nl/users/beeldengeluid</dc:publisher><dc:date>1960-04-13</dc:date><dc:type>Moving Image</dc:type><dc:format>http://openbeelden.nl/files/47/47675.47661.WEEKNUMMER601-HRE000299F9-B.mpeg-.ogv</dc:format><dc:format>http://openbeelden.nl/files/47/47678.47661.WEEKNUMMER601-HRE000299F9-B.mpeg-.ogv</dc:format><dc:format>http://openbeelden.nl/files/47/47681.47661.WEEKNUMMER601-HRE000299F9-B.mpeg-.mp4</dc:format><dc:format>http://openbeelden.nl/files/47/47701.47661.WEEKNUMMER601_HRE000299F9_B_mpeg_.m3u8</dc:format><dc:format>http://openbeelden.nl/files/47/47684.47661.WEEKNUMMER601-HRE000299F9-B.mpeg-.ts</dc:format><dc:format>http://openbeelden.nl/files/47/47665.47661.WEEKNUMMER601-HRE000299F9-B.mpeg-.mpeg</dc:format><dc:format>http://openbeelden.nl/files/47/47661.WEEKNUMMER601-HRE000299F9-B.mpeg-.mpg</dc:format><dc:format>http://openbeelden.nl/images/600540/Jonge_dieren_in_onze_dierentuinen_Blijdorp_%280_13%29.png</dc:format><dc:identifier/><dc:source xml:lang="nl">WEEKNUMMER601-HRE000299F9</dc:source><dc:source xml:lang="en">WEEKNUMMER601-HRE000299F9</dc:source><dc:relation xml:lang="nl"/><dc:language>nl</dc:language><dc:rights>http://creativecommons.org/licenses/by-sa/3.0/nl/</dc:rights></oai_dc:dc></metadata></record><resumptionToken completeListSize="103" cursor="100"/></ListRecords></OAI-PMH>