<?xml version="1.0" encoding="UTF-8" standalone="no"?><OAI-PMH xmlns="http://www.openarchives.org/OAI/2.0/" xmlns:xsi="http://www.w3.org/2001/XMLSchema-instance" xsi:schemaLocation="http://www.openarchives.org/OAI/2.0/ http://www.openarchives.org/OAI/2.0/OAI-PMH.xsd"><responseDate>2013-08-27T12:05:55Z      </responseDate><request from="2009-01-01" metadataPrefix="oai_dc" set="vpro" verb="ListRecords">http://openbeelden.nl/feeds/oai/?verb=ListRecords&amp;amp;metadataPrefix=oai_dc&amp;amp;from=2009-01-01&amp;amp;set=vpro</request><ListRecords><record><header><identifier>oai:openimages.eu:82707</identifier><datestamp>2012-08-30T19:45:14Z</datestamp><setSpec>vpro</setSpec></header><metadata><oai_dc:dc xmlns:dc="http://purl.org/dc/elements/1.1/" xmlns:oai_dc="http://www.openarchives.org/OAI/2.0/oai_dc/" xsi:schemaLocation="http://www.openarchives.org/OAI/2.0/oai_dc/ http://www.openarchives.org/OAI/2.0/oai_dc.xsd"><dc:title xml:lang="en">California Dreaming </dc:title><dc:creator xml:lang="en">VPRO tegenlicht</dc:creator><dc:description xml:lang="en">California is a strong brand, the state of new beginnings, dreams and movie stars, of surfers and a wonderful climate. But the Golden State is bankrupt and the city of Los Angeles is running out of cash. Public services are being cut and unemployment keeps rising. At the same time, optimism, entrepreneurship and the belief in the power of America are stronger than ever.</dc:description><dc:publisher xml:lang="en">VPRO</dc:publisher><dc:publisher>http://www.openbeelden.nl/users/vpro</dc:publisher><dc:date>2011-05-28</dc:date><dc:type>Moving Image</dc:type><dc:format>http://openbeelden.nl/files/82/82723.82706.CaliforniaDreamingCClicense40.webm</dc:format><dc:format>http://openbeelden.nl/files/82/82715.82706.CaliforniaDreamingCClicense40.ogv</dc:format><dc:format>http://openbeelden.nl/files/82/82717.82706.CaliforniaDreamingCClicense40.ogv</dc:format><dc:format>http://openbeelden.nl/files/82/82719.82706.CaliforniaDreamingCClicense40.mp4</dc:format><dc:format>http://openbeelden.nl/files/82/82721.82706.CaliforniaDreamingCClicense40.mp4</dc:format><dc:format>http://openbeelden.nl/files/82/82766.82706.CaliforniaDreamingCClicense40.m3u8</dc:format><dc:format>http://openbeelden.nl/files/82/82725.82706.CaliforniaDreamingCClicense40.ts</dc:format><dc:format>http://openbeelden.nl/files/82/82709.82706.CaliforniaDreamingCClicense40.mpeg</dc:format><dc:format>http://openbeelden.nl/images/602612/California_Dreaming_%2824_36%29.png</dc:format><dc:identifier/><dc:source xml:lang="en"/><dc:relation xml:lang="en"/><dc:language>en</dc:language><dc:coverage xml:lang="en">califonia</dc:coverage><dc:coverage xml:lang="en">los angeles</dc:coverage><dc:rights>http://creativecommons.org/licenses/by-nc-sa/3.0/nl/</dc:rights></oai_dc:dc></metadata></record><record><header><identifier>oai:openimages.eu:84215</identifier><datestamp>2011-06-12T20:29:17Z</datestamp><setSpec>vpro</setSpec></header><metadata><oai_dc:dc xmlns:dc="http://purl.org/dc/elements/1.1/" xmlns:oai_dc="http://www.openarchives.org/OAI/2.0/oai_dc/" xsi:schemaLocation="http://www.openarchives.org/OAI/2.0/oai_dc/ http://www.openarchives.org/OAI/2.0/oai_dc.xsd"><dc:title xml:lang="en">Stay'in alive in Jo'burg</dc:title><dc:creator xml:lang="en">VPRO holland doc </dc:creator><dc:description xml:lang="en">Johannesburg is the largest economic metropolis in Africa. Downtown Johannesburg, however, is one of the world's most violent places. Most offi ce buildings have been vacated or squatted and are occupied by various groups of illegal Africans from neighbouring countries. Thousands of fortune seekers are trying to build a new life in this anarchist urban jungle. Meanwhile, the city is preparing for the World Cup soccer 2010, an important opportunity for Johannesburg to present itself to the world. The city centre needs to be cleaned up, and everything is being done to make sure that this major event will run smoothly. But will it succeed? And what will be the consequences for the thousands of immigrants in the city center? Rob Schröder visited Johannesburg repeatedly since January 2008 to document the changes. Is it possible to control this city of hope and fear, and to transform its center into a safe and acceptable place to live? And how does anyone survive in Johannesburg at all?</dc:description><dc:publisher xml:lang="en">VPRO</dc:publisher><dc:publisher>http://www.openbeelden.nl/users/vpro</dc:publisher><dc:date>2011-06-12</dc:date><dc:type>Moving Image</dc:type><dc:format>http://openbeelden.nl/files/84/84231.84214.stayinaliveinjoburg.webm</dc:format><dc:format>http://openbeelden.nl/files/84/84223.84214.stayinaliveinjoburg.ogv</dc:format><dc:format>http://openbeelden.nl/files/84/84225.84214.stayinaliveinjoburg.ogv</dc:format><dc:format>http://openbeelden.nl/files/84/84227.84214.stayinaliveinjoburg.mp4</dc:format><dc:format>http://openbeelden.nl/files/84/84229.84214.stayinaliveinjoburg.mp4</dc:format><dc:format>http://openbeelden.nl/files/84/84278.84214.stayinaliveinjoburg.m3u8</dc:format><dc:format>http://openbeelden.nl/files/84/84233.84214.stayinaliveinjoburg.ts</dc:format><dc:format>http://openbeelden.nl/files/84/84217.84214.stayinaliveinjoburg.mpeg</dc:format><dc:format>http://openbeelden.nl/images/604042/Stay%27in_alive_in_Jo%27burg_%2827_41%29.png</dc:format><dc:identifier/><dc:source xml:lang="en"/><dc:relation xml:lang="en"/><dc:language>en</dc:language><dc:rights>http://creativecommons.org/licenses/by-nc-sa/3.0/nl/</dc:rights></oai_dc:dc></metadata></record><record><header><identifier>oai:openimages.eu:84117</identifier><datestamp>2011-06-12T02:31:01Z</datestamp><setSpec>vpro</setSpec></header><metadata><oai_dc:dc xmlns:dc="http://purl.org/dc/elements/1.1/" xmlns:oai_dc="http://www.openarchives.org/OAI/2.0/oai_dc/" xsi:schemaLocation="http://www.openarchives.org/OAI/2.0/oai_dc/ http://www.openarchives.org/OAI/2.0/oai_dc.xsd"><dc:title xml:lang="en">I am Gurgaon: the new city in India</dc:title><dc:title xml:lang="nl"> I am Gurgaon: de nieuwe stad in india</dc:title><dc:creator xml:lang="en">VPRO tegenlicht</dc:creator><dc:description xml:lang="en">Gurgaon is a satellite city outside of New Delhi. Its shiny facades symbolize India's unparalleled economic growth. Gurgaon was built at the turn of this century by the largest project developers in the world. What was a village 15 years ago has rapidly grown into a city of 1,4 million inhabitants, living in glossy apartment buildings, but with little or no infrastructure. How viable is this new type of city? Residents of the gated communities of this privatized society off er insights in their hopes and desires, and in the new self-confidence of the Indian middle class. Gradually, the consequences of the credit crunch appear. In this model city, the gap between rich and poor is growing, affecting the psyche of its inhabitants. Is Gurgaon a new Ponzi Scheme or the prototype for future mega cities all over India?</dc:description><dc:description xml:lang="nl">De spiegelende gevels van Gurgaon, een satellietstad van New Delhi, staan symbool voor India’s ongekende economische groei. Gurgaon is begin deze eeuw door de grootste projectontwikkelaars ter wereld gebouwd. De stad – met 4 miljoen inwoners, maar weinig of geen infrastructuur –  is een prototype, dat met de groei van de Aziatische middenklasse mogelijk honderden malen gekopiëerd zal worden. Maar hoe levensvatbaar is dit type nieuwe stad?Bewoners van de gated communities van deze geprivatiseerde stad geven inzicht in hun verlangens, hun angsten en in het nieuwe zelfvertrouwen van de Indiase middenklasse. Aan de rand van de globalisering zien we welke gevolgen de kredietcrisis en de groeiende kloof tussen rijk en arm hebben voor Gurgaon en de psyche van zijn bewoners.</dc:description><dc:publisher xml:lang="en">VPRO</dc:publisher><dc:publisher>http://www.openbeelden.nl/users/vpro</dc:publisher><dc:date>2011-06-11</dc:date><dc:type>Moving Image</dc:type><dc:format>http://openbeelden.nl/files/84/84134.84116.i_am_gurgaon.webm</dc:format><dc:format>http://openbeelden.nl/files/84/84126.84116.i_am_gurgaon.ogv</dc:format><dc:format>http://openbeelden.nl/files/84/84128.84116.i_am_gurgaon.ogv</dc:format><dc:format>http://openbeelden.nl/files/84/84130.84116.i_am_gurgaon.mp4</dc:format><dc:format>http://openbeelden.nl/files/84/84132.84116.i_am_gurgaon.mp4</dc:format><dc:format>http://openbeelden.nl/files/84/84154.84116.i_am_gurgaon.m3u8</dc:format><dc:format>http://openbeelden.nl/files/84/84136.84116.i_am_gurgaon.ts</dc:format><dc:format>http://openbeelden.nl/files/84/84119.84116.i_am_gurgaon.mpeg</dc:format><dc:format>http://openbeelden.nl/images/604043/I_am_Gurgaon_the_new_city_in_India_%2824_31%29.png</dc:format><dc:identifier/><dc:source xml:lang="en"/><dc:source xml:lang="nl"/><dc:relation xml:lang="en"/><dc:language>en</dc:language><dc:rights>http://creativecommons.org/licenses/by-nc-sa/3.0/nl/</dc:rights></oai_dc:dc></metadata></record><record><header><identifier>oai:openimages.eu:83433</identifier><datestamp>2011-06-06T02:32:31Z</datestamp><setSpec>vpro</setSpec></header><metadata><oai_dc:dc xmlns:dc="http://purl.org/dc/elements/1.1/" xmlns:oai_dc="http://www.openarchives.org/OAI/2.0/oai_dc/" xsi:schemaLocation="http://www.openarchives.org/OAI/2.0/oai_dc/ http://www.openarchives.org/OAI/2.0/oai_dc.xsd"><dc:title xml:lang="en">metropolis coming to the city</dc:title><dc:creator xml:lang="en">VPRO metropolis</dc:creator><dc:description xml:lang="en">Andala, Maria, Nick and Dong Bing live in four different continents, but they all have one thing in common: they have decided to start a new life in the big city. For six months, the four newcomers are followed by our local Metropolis video correspondents.</dc:description><dc:publisher xml:lang="en">VPRO</dc:publisher><dc:publisher>http://www.openbeelden.nl/users/vpro</dc:publisher><dc:date>2011-06-05</dc:date><dc:type>Moving Image</dc:type><dc:format>http://openbeelden.nl/files/83/83450.83432.metropolis_coming_to_the_city.webm</dc:format><dc:format>http://openbeelden.nl/files/83/83442.83432.metropolis_coming_to_the_city.ogv</dc:format><dc:format>http://openbeelden.nl/files/83/83444.83432.metropolis_coming_to_the_city.ogv</dc:format><dc:format>http://openbeelden.nl/files/83/83446.83432.metropolis_coming_to_the_city.mp4</dc:format><dc:format>http://openbeelden.nl/files/83/83448.83432.metropolis_coming_to_the_city.mp4</dc:format><dc:format>http://openbeelden.nl/files/83/83557.83432.metropolis_coming_to_the_city.m3u8</dc:format><dc:format>http://openbeelden.nl/files/83/83452.83432.metropolis_coming_to_the_city.ts</dc:format><dc:format>http://openbeelden.nl/files/83/83435.83432.metropolis_coming_to_the_city.mpeg</dc:format><dc:format>http://openbeelden.nl/images/604045/metropolis_coming_to_the_city_%2824_24%29.png</dc:format><dc:identifier/><dc:source xml:lang="en"/><dc:relation xml:lang="en"/><dc:language>en</dc:language><dc:rights>http://creativecommons.org/licenses/by-nc-nd/3.0/nl/</dc:rights></oai_dc:dc></metadata></record><resumptionToken completeListSize="4" cursor="0"/></ListRecords></OAI-PMH>